Version 4
SHEET 1 1768 1108
WIRE 352 -384 -800 -384
WIRE 560 -384 352 -384
WIRE 608 -384 560 -384
WIRE 768 -384 688 -384
WIRE 832 -384 768 -384
WIRE 992 -384 912 -384
WIRE 1056 -384 992 -384
WIRE 1232 -384 1136 -384
WIRE 1296 -384 1232 -384
WIRE 1440 -384 1376 -384
WIRE 1504 -384 1440 -384
WIRE 352 -304 352 -384
WIRE 560 -288 560 -384
WIRE 768 -288 768 -384
WIRE 992 -288 992 -384
WIRE 1232 -288 1232 -384
WIRE 1440 -288 1440 -384
WIRE -1040 -256 -1072 -256
WIRE -992 -256 -1040 -256
WIRE -800 -240 -800 -384
WIRE -800 -240 -944 -240
WIRE -992 -192 -992 -256
WIRE -800 -192 -800 -240
WIRE -944 -176 -944 -240
WIRE 16 -160 -448 -160
WIRE 208 -160 16 -160
WIRE 16 -144 16 -160
WIRE 560 -144 560 -208
WIRE -576 -128 -800 -128
WIRE 768 -112 768 -208
WIRE -944 -96 -944 -128
WIRE -800 -96 -800 -128
WIRE -800 -96 -944 -96
WIRE 992 -80 992 -208
WIRE -576 -48 -576 -128
WIRE -576 -48 -672 -48
WIRE -416 -48 -576 -48
WIRE -144 -48 -384 -48
WIRE 16 -48 16 -64
WIRE 16 -48 -144 -48
WIRE 96 -48 16 -48
WIRE 1232 -48 1232 -208
WIRE -672 -32 -672 -48
WIRE 16 -32 16 -48
WIRE -416 -16 -416 -48
WIRE -384 -16 -384 -48
WIRE 1440 -16 1440 -208
WIRE -448 16 -448 -160
WIRE -432 16 -448 16
WIRE 96 16 96 -48
WIRE -544 32 -576 32
WIRE -672 48 -672 32
WIRE -544 48 -544 32
WIRE -544 48 -672 48
WIRE -544 80 -544 48
WIRE -400 80 -400 48
WIRE -400 80 -544 80
WIRE -544 112 -544 80
WIRE -80 144 -112 144
WIRE -64 144 -80 144
WIRE -64 176 -64 144
WIRE 16 176 -64 176
WIRE -64 192 -64 176
WIRE 16 192 16 176
WIRE -544 208 -544 192
WIRE -112 208 -544 208
WIRE -544 224 -544 208
WIRE -144 256 -144 -48
WIRE -112 256 -144 256
FLAG 992 0 0
FLAG 1232 32 0
FLAG 1440 64 0
FLAG 768 -32 0
FLAG 560 -64 0
FLAG 1584 -384 0
FLAG 352 -240 0
FLAG -992 -112 0
FLAG -1040 -256 VM
FLAG -80 144 IM
FLAG -544 288 0
FLAG 16 48 0
FLAG 96 80 0
FLAG 208 -80 0
FLAG -368 16 0
FLAG -64 272 0
FLAG 16 272 0
SYMBOL voltage 992 -96 R0
WINDOW 3 -131 129 Left 2
WINDOW 123 0 0 Left 0
WINDOW 39 0 0 Left 0
SYMATTR Value PULSE(0 3.3 0 10n 10n {p/8} {p/4})
SYMATTR InstName V1
SYMBOL voltage 1232 -64 R0
WINDOW 3 -155 128 Left 2
WINDOW 123 0 0 Left 0
WINDOW 39 0 0 Left 0
SYMATTR Value PULSE(0 3.3 0 10n 10n {p/16} {p/8})
SYMATTR InstName V2
SYMBOL voltage 1440 -32 R0
WINDOW 3 -136 132 Left 2
WINDOW 123 0 0 Left 0
WINDOW 39 0 0 Left 0
SYMATTR Value PULSE(0 3.3 0 10n 10n {p/32} {p/16})
SYMATTR InstName V3
SYMBOL voltage 768 -128 R0
WINDOW 3 -154 129 Left 2
WINDOW 123 0 0 Left 0
WINDOW 39 0 0 Left 0
SYMATTR Value PULSE(0 3.3 0 10n 10n {p/4} {p/2})
SYMATTR InstName V4
SYMBOL voltage 560 -160 R0
WINDOW 3 -172 130 Left 2
WINDOW 123 0 0 Left 0
WINDOW 39 0 0 Left 0
SYMATTR Value PULSE(0 3.3 0 10n 10n {p/2} {p})
SYMATTR InstName V5
SYMBOL res 704 -400 R90
WINDOW 0 0 56 VBottom 2
WINDOW 3 32 56 VTop 2
SYMATTR InstName R6
SYMATTR Value {RR}
SYMBOL res 928 -400 R90
WINDOW 0 0 56 VBottom 2
WINDOW 3 32 56 VTop 2
SYMATTR InstName R1
SYMATTR Value {RR}
SYMBOL res 1152 -400 R90
WINDOW 0 0 56 VBottom 2
WINDOW 3 32 56 VTop 2
SYMATTR InstName R2
SYMATTR Value {RR}
SYMBOL res 1392 -400 R90
WINDOW 0 0 56 VBottom 2
WINDOW 3 32 56 VTop 2
SYMATTR InstName R3
SYMATTR Value {RR}
SYMBOL res 576 -192 R180
WINDOW 0 36 76 Left 2
WINDOW 3 36 40 Left 2
SYMATTR InstName R4
SYMATTR Value {2*RR}
SYMBOL res 784 -192 R180
WINDOW 0 36 76 Left 2
WINDOW 3 36 40 Left 2
SYMATTR InstName R5
SYMATTR Value {2*RR}
SYMBOL res 1008 -192 R180
WINDOW 0 36 76 Left 2
WINDOW 3 36 40 Left 2
SYMATTR InstName R7
SYMATTR Value {2*RR}
SYMBOL res 1248 -192 R180
WINDOW 0 36 76 Left 2
WINDOW 3 36 40 Left 2
SYMATTR InstName R8
SYMATTR Value {2*RR}
SYMBOL res 1456 -192 R180
WINDOW 0 36 76 Left 2
WINDOW 3 36 40 Left 2
SYMATTR InstName R9
SYMATTR Value {2*RR}
SYMBOL res 1488 -368 R270
WINDOW 0 32 56 VTop 2
WINDOW 3 0 56 VBottom 2
SYMATTR InstName R10
SYMATTR Value {RR}
SYMBOL cap 336 -304 R0
SYMATTR InstName C1
SYMATTR Value {F}
SYMBOL res -560 -64 M0
SYMATTR InstName R12
SYMATTR Value 150
SYMBOL cap -784 -192 M0
SYMATTR InstName C2
SYMATTR Value 1m
SYMBOL e -992 -208 M0
SYMATTR InstName E1
SYMATTR Value 1
SYMBOL res -528 96 M0
SYMATTR InstName R14
SYMATTR Value 100
SYMBOL cap -528 224 M0
SYMATTR InstName C3
SYMATTR Value 1n
SYMBOL cap -656 -32 M0
SYMATTR InstName C4
SYMATTR Value 1n
SYMBOL res 0 -160 R0
SYMATTR InstName R15
SYMATTR Value 10K
SYMBOL res 0 -48 R0
SYMATTR InstName R16
SYMATTR Value 10K
SYMBOL cap 80 16 R0
SYMATTR InstName C5
SYMATTR Value 100n
SYMBOL voltage 208 -176 R0
WINDOW 3 23 80 Left 2
WINDOW 123 0 0 Left 0
WINDOW 39 0 0 Left 0
SYMATTR Value 3.3
SYMATTR InstName V6
SYMBOL Opamps\\LT1213 -464 16 M90
SYMATTR InstName U4
SYMBOL e -64 176 R0
SYMATTR InstName E2
SYMATTR Value 1
SYMBOL res 0 176 R0
SYMATTR InstName R18
SYMATTR Value 1
TEXT 384 120 Left 2 !.tran {p}
TEXT 616 144 Left 2 !.param F=100n P=1m RR=150
TEXT 496 344 Left 2 !;.step param p list 0.01m 0.1m 1m 10m 100m
TEXT 496 376 Left 2 !;.step param F list 10n 100n
TEXT -664 72 Right 2 ;150R approx +-10mA range
TEXT 704 680 Left 2 !.include opamp.sub
TEXT 672 776 Left 2 !.include MCP6021.txt
TEXT 640 736 Left 2 !.include MCP601_MM_D.txt
