EESchema Schematic File Version 4
LIBS:LCR-cache
EELAYER 30 0
EELAYER END
$Descr A4 11693 8268
encoding utf-8
Sheet 1 1
Title ""
Date ""
Rev ""
Comp ""
Comment1 ""
Comment2 ""
Comment3 ""
Comment4 ""
$EndDescr
$Comp
L Connector:USB_B_Micro J1
U 1 1 5DA4A662
P 1650 6050
F 0 "J1" H 1700 5650 50  0000 L CNN
F 1 "USB_B_Micro" H 1450 6400 50  0000 L CNN
F 2 "Connector_USB:USB_Micro-B_Molex_47346-0001" H 1800 6000 50  0001 C CNN
F 3 "~" H 1800 6000 50  0001 C CNN
	1    1650 6050
	1    0    0    -1  
$EndComp
NoConn ~ 1950 6250
$Comp
L power:GND #PWR01
U 1 1 5DA4BCF2
P 1650 6550
F 0 "#PWR01" H 1650 6300 50  0001 C CNN
F 1 "GND" H 1650 6400 50  0000 C CNN
F 2 "" H 1650 6550 50  0001 C CNN
F 3 "" H 1650 6550 50  0001 C CNN
	1    1650 6550
	1    0    0    -1  
$EndComp
Wire Wire Line
	1650 6450 1650 6500
NoConn ~ 1550 6450
$Comp
L MCU_ST_STM32F0:STM32F030F4Px U2
U 1 1 5DA4D175
P 5100 2800
F 0 "U2" H 4700 3450 50  0000 L CNN
F 1 "STM32F030F4Px" H 5300 3450 50  0000 L CNN
F 2 "Package_SO:TSSOP-20_4.4x6.5mm_P0.65mm" H 4700 2100 50  0001 R CNN
F 3 "http://www.st.com/st-web-ui/static/active/en/resource/technical/document/datasheet/DM00088500.pdf" H 5100 2800 50  0001 C CNN
	1    5100 2800
	1    0    0    -1  
$EndComp
$Comp
L power:GND #PWR016
U 1 1 5DA4DD3B
P 5100 3650
F 0 "#PWR016" H 5100 3400 50  0001 C CNN
F 1 "GND" H 5100 3500 50  0000 C CNN
F 2 "" H 5100 3650 50  0001 C CNN
F 3 "" H 5100 3650 50  0001 C CNN
	1    5100 3650
	1    0    0    -1  
$EndComp
Wire Wire Line
	5100 3650 5100 3600
$Comp
L power:GND #PWR014
U 1 1 5DA4E2E9
P 4700 1950
F 0 "#PWR014" H 4700 1700 50  0001 C CNN
F 1 "GND" H 4700 1800 50  0000 C CNN
F 2 "" H 4700 1950 50  0001 C CNN
F 3 "" H 4700 1950 50  0001 C CNN
	1    4700 1950
	0    1    1    0   
$EndComp
$Comp
L power:+3V3 #PWR015
U 1 1 5DA4F41E
P 5100 1900
F 0 "#PWR015" H 5100 1750 50  0001 C CNN
F 1 "+3V3" H 5100 2040 50  0000 C CNN
F 2 "" H 5100 1900 50  0001 C CNN
F 3 "" H 5100 1900 50  0001 C CNN
	1    5100 1900
	1    0    0    -1  
$EndComp
$Comp
L Device:C_Small C6
U 1 1 5DA5044D
P 4850 1950
F 0 "C6" H 4860 2020 50  0000 L CNN
F 1 "100n" H 4860 1870 50  0000 L CNN
F 2 "Capacitor_SMD:C_0805_2012Metric" H 4850 1950 50  0001 C CNN
F 3 "~" H 4850 1950 50  0001 C CNN
	1    4850 1950
	0    1    -1   0   
$EndComp
$Comp
L Device:C_Small C8
U 1 1 5DA51045
P 5450 1950
F 0 "C8" H 5460 2020 50  0000 L CNN
F 1 "100n" H 5460 1870 50  0000 L CNN
F 2 "Capacitor_SMD:C_0805_2012Metric" H 5450 1950 50  0001 C CNN
F 3 "~" H 5450 1950 50  0001 C CNN
	1    5450 1950
	0    -1   -1   0   
$EndComp
Wire Wire Line
	5100 2100 5100 1950
Wire Wire Line
	4950 1950 5100 1950
Connection ~ 5100 1950
Wire Wire Line
	5100 1950 5100 1900
Wire Wire Line
	5200 2100 5200 1950
Wire Wire Line
	5200 1950 5350 1950
Wire Wire Line
	5200 1950 5100 1950
Connection ~ 5200 1950
$Comp
L power:GND #PWR020
U 1 1 5DA52D51
P 5600 1950
F 0 "#PWR020" H 5600 1700 50  0001 C CNN
F 1 "GND" H 5600 1800 50  0000 C CNN
F 2 "" H 5600 1950 50  0001 C CNN
F 3 "" H 5600 1950 50  0001 C CNN
	1    5600 1950
	0    -1   -1   0   
$EndComp
Wire Wire Line
	5550 1950 5600 1950
Text Label 5650 3400 0    50   ~ 0
SWD
Text Label 5650 3200 0    50   ~ 0
SDA
Text Label 5650 3100 0    50   ~ 0
SCL
$Comp
L Device:C_Small C2
U 1 1 5DA61328
P 4200 2300
F 0 "C2" H 4210 2370 50  0000 L CNN
F 1 "100n" H 4210 2220 50  0000 L CNN
F 2 "Capacitor_SMD:C_0805_2012Metric" H 4200 2300 50  0001 C CNN
F 3 "~" H 4200 2300 50  0001 C CNN
	1    4200 2300
	0    1    -1   0   
$EndComp
Wire Wire Line
	4700 1950 4750 1950
$Comp
L Device:R_Small R7
U 1 1 5DA6330E
P 4450 2500
F 0 "R7" H 4480 2520 50  0000 L CNN
F 1 "10K" H 4480 2460 50  0000 L CNN
F 2 "Resistor_SMD:R_0805_2012Metric" H 4450 2500 50  0001 C CNN
F 3 "~" H 4450 2500 50  0001 C CNN
	1    4450 2500
	0    1    1    0   
$EndComp
Wire Wire Line
	4550 2500 4600 2500
$Comp
L power:GND #PWR07
U 1 1 5DA65490
P 4050 2300
F 0 "#PWR07" H 4050 2050 50  0001 C CNN
F 1 "GND" H 4050 2150 50  0000 C CNN
F 2 "" H 4050 2300 50  0001 C CNN
F 3 "" H 4050 2300 50  0001 C CNN
	1    4050 2300
	0    1    1    0   
$EndComp
Wire Wire Line
	4050 2300 4100 2300
$Comp
L power:GND #PWR011
U 1 1 5DA65C04
P 4300 2500
F 0 "#PWR011" H 4300 2250 50  0001 C CNN
F 1 "GND" H 4300 2350 50  0000 C CNN
F 2 "" H 4300 2500 50  0001 C CNN
F 3 "" H 4300 2500 50  0001 C CNN
	1    4300 2500
	0    1    1    0   
$EndComp
Wire Wire Line
	4300 2500 4350 2500
$Comp
L Device:R_Small R5
U 1 1 5DA6645D
P 4350 2100
F 0 "R5" H 4380 2120 50  0000 L CNN
F 1 "10K" H 4380 2060 50  0000 L CNN
F 2 "Resistor_SMD:R_0805_2012Metric" H 4350 2100 50  0001 C CNN
F 3 "~" H 4350 2100 50  0001 C CNN
	1    4350 2100
	-1   0    0    1   
$EndComp
Wire Wire Line
	4300 2300 4350 2300
Wire Wire Line
	4350 2200 4350 2300
Connection ~ 4350 2300
Wire Wire Line
	4350 2300 4600 2300
$Comp
L power:+3V3 #PWR012
U 1 1 5DA674AE
P 4350 1950
F 0 "#PWR012" H 4350 1800 50  0001 C CNN
F 1 "+3V3" H 4350 2090 50  0000 C CNN
F 2 "" H 4350 1950 50  0001 C CNN
F 3 "" H 4350 1950 50  0001 C CNN
	1    4350 1950
	1    0    0    -1  
$EndComp
Wire Wire Line
	4350 1950 4350 2000
Text Label 4400 2300 0    50   ~ 0
NRST
$Comp
L 00_Mix:DMP3098L Q1
U 1 1 5DA6F456
P 2400 5850
F 0 "Q1" V 2250 5950 50  0000 L CNN
F 1 "DMP3098L" V 2550 5650 50  0000 L CNN
F 2 "Package_TO_SOT_SMD:SOT-23" H 2500 5750 50  0001 C CNN
F 3 "http://www.farnell.com/datasheets/1915664.pdf" H 2300 5850 50  0001 C CNN
	1    2400 5850
	0    1    -1   0   
$EndComp
$Comp
L Device:R_Small R1
U 1 1 5DA7237E
P 2100 6150
F 0 "R1" H 2130 6170 50  0000 L CNN
F 1 "0R" H 2130 6110 50  0000 L CNN
F 2 "Resistor_SMD:R_0805_2012Metric" H 2100 6150 50  0001 C CNN
F 3 "~" H 2100 6150 50  0001 C CNN
	1    2100 6150
	0    1    1    0   
$EndComp
Wire Wire Line
	1950 6150 2000 6150
Wire Wire Line
	2200 6150 2250 6150
Wire Wire Line
	2250 6150 2250 6050
Wire Wire Line
	2250 6050 1950 6050
Wire Wire Line
	1650 6500 2400 6500
Wire Wire Line
	2400 6500 2400 6150
Connection ~ 1650 6500
Wire Wire Line
	1650 6500 1650 6550
$Comp
L Device:C_Small C1
U 1 1 5DA76311
P 3100 6100
F 0 "C1" H 3110 6170 50  0000 L CNN
F 1 "4u7" H 3110 6020 50  0000 L CNN
F 2 "Capacitor_SMD:C_0805_2012Metric" H 3100 6100 50  0001 C CNN
F 3 "~" H 3100 6100 50  0001 C CNN
	1    3100 6100
	-1   0    0    1   
$EndComp
$Comp
L Device:C_Small C5
U 1 1 5DA775A3
P 4550 6150
F 0 "C5" H 4560 6220 50  0000 L CNN
F 1 "4u7" H 4560 6070 50  0000 L CNN
F 2 "Capacitor_SMD:C_0805_2012Metric" H 4550 6150 50  0001 C CNN
F 3 "~" H 4550 6150 50  0001 C CNN
	1    4550 6150
	1    0    0    1   
$EndComp
$Comp
L Device:R_Small R6
U 1 1 5DA7D379
P 4350 6200
F 0 "R6" H 4380 6220 50  0000 L CNN
F 1 "4K" H 4380 6160 50  0000 L CNN
F 2 "Resistor_SMD:R_0805_2012Metric" H 4350 6200 50  0001 C CNN
F 3 "~" H 4350 6200 50  0001 C CNN
	1    4350 6200
	-1   0    0    1   
$EndComp
Wire Wire Line
	2600 5850 2800 5850
$Comp
L Device:R_Small R2
U 1 1 5DA51DF3
P 3450 6200
F 0 "R2" H 3480 6220 50  0000 L CNN
F 1 "1K" H 3480 6160 50  0000 L CNN
F 2 "Resistor_SMD:R_0805_2012Metric" H 3450 6200 50  0001 C CNN
F 3 "~" H 3450 6200 50  0001 C CNN
	1    3450 6200
	1    0    0    1   
$EndComp
$Comp
L Device:LED_Small D2
U 1 1 5DA52B7B
P 3300 6100
F 0 "D2" H 3400 6150 50  0000 C CNN
F 1 "RED" H 3400 6050 50  0000 C CNN
F 2 "Diode_SMD:D_1206_3216Metric" V 3300 6100 50  0001 C CNN
F 3 "~" V 3300 6100 50  0001 C CNN
	1    3300 6100
	0    -1   -1   0   
$EndComp
Wire Wire Line
	3450 6100 3450 6050
Wire Wire Line
	3450 6050 3500 6050
Wire Wire Line
	3300 6000 3300 5850
Connection ~ 3300 5850
Wire Wire Line
	3300 5850 3500 5850
Wire Wire Line
	3450 6300 3450 6350
Wire Wire Line
	3450 6350 3300 6350
Wire Wire Line
	3300 6350 3300 6200
Wire Wire Line
	3100 6000 3100 5850
Connection ~ 3100 5850
Wire Wire Line
	3100 5850 3300 5850
Wire Wire Line
	4300 6050 4350 6050
Wire Wire Line
	4350 6050 4350 6100
Wire Wire Line
	4300 5850 4550 5850
Wire Wire Line
	4550 5850 4550 6050
Connection ~ 4550 5850
Wire Wire Line
	5200 5950 5250 5950
Wire Wire Line
	5200 6000 5200 5950
$Comp
L power:GND #PWR017
U 1 1 5DA7BE5A
P 5200 6000
F 0 "#PWR017" H 5200 5750 50  0001 C CNN
F 1 "GND" H 5200 5850 50  0000 C CNN
F 2 "" H 5200 6000 50  0001 C CNN
F 3 "" H 5200 6000 50  0001 C CNN
	1    5200 6000
	1    0    0    -1  
$EndComp
Wire Wire Line
	4550 6300 4550 6250
$Comp
L power:GND #PWR013
U 1 1 5DA82D3A
P 4550 6300
F 0 "#PWR013" H 4550 6050 50  0001 C CNN
F 1 "GND" H 4550 6150 50  0000 C CNN
F 2 "" H 4550 6300 50  0001 C CNN
F 3 "" H 4550 6300 50  0001 C CNN
	1    4550 6300
	1    0    0    -1  
$EndComp
Wire Wire Line
	4350 6300 4350 6350
Wire Wire Line
	3900 6350 3900 6250
Connection ~ 3900 6350
Wire Wire Line
	3900 6350 4350 6350
$Comp
L 00_Mix:MCP73831-2-OT U1
U 1 1 5DA4C57F
P 3900 5950
F 0 "U1" H 4000 5650 50  0000 C CNN
F 1 "MCP73831-2-OT" H 3900 6200 50  0000 C CNN
F 2 "Package_TO_SOT_SMD:SOT-23-5" H 3950 5700 50  0001 C CIN
F 3 "http://ww1.microchip.com/downloads/en/DeviceDoc/20001984g.pdf" H 3750 5900 50  0001 C CNN
	1    3900 5950
	1    0    0    -1  
$EndComp
Wire Wire Line
	3100 6250 3100 6200
$Comp
L power:GND #PWR03
U 1 1 5DA891C7
P 3100 6250
F 0 "#PWR03" H 3100 6000 50  0001 C CNN
F 1 "GND" H 3100 6100 50  0000 C CNN
F 2 "" H 3100 6250 50  0001 C CNN
F 3 "" H 3100 6250 50  0001 C CNN
	1    3100 6250
	1    0    0    -1  
$EndComp
Wire Wire Line
	3900 6400 3900 6350
$Comp
L power:GND #PWR06
U 1 1 5DA7E737
P 3900 6400
F 0 "#PWR06" H 3900 6150 50  0001 C CNN
F 1 "GND" H 3900 6250 50  0000 C CNN
F 2 "" H 3900 6400 50  0001 C CNN
F 3 "" H 3900 6400 50  0001 C CNN
	1    3900 6400
	1    0    0    -1  
$EndComp
$Comp
L Device:R_Small R25
U 1 1 5DAD4CC5
P 8000 2950
F 0 "R25" V 8100 2950 50  0000 C CNN
F 1 "150R" V 7900 2950 50  0000 C CNN
F 2 "Resistor_SMD:R_0805_2012Metric" H 8000 2950 50  0001 C CNN
F 3 "~" H 8000 2950 50  0001 C CNN
	1    8000 2950
	1    0    0    -1  
$EndComp
$Comp
L power:GND #PWR033
U 1 1 5DAD76F9
P 8000 3100
F 0 "#PWR033" H 8000 2850 50  0001 C CNN
F 1 "GND" H 8000 2950 50  0000 C CNN
F 2 "" H 8000 3100 50  0001 C CNN
F 3 "" H 8000 3100 50  0001 C CNN
	1    8000 3100
	1    0    0    -1  
$EndComp
$Comp
L Device:R_Small R18
U 1 1 5DAD9E42
P 7700 2750
F 0 "R18" V 7800 2750 50  0000 C CNN
F 1 "150R" V 7600 2750 50  0000 C CNN
F 2 "Resistor_SMD:R_0805_2012Metric" H 7700 2750 50  0001 C CNN
F 3 "~" H 7700 2750 50  0001 C CNN
	1    7700 2750
	-1   0    0    -1  
$EndComp
$Comp
L Device:R_Small R19
U 1 1 5DADA221
P 7700 3050
F 0 "R19" V 7800 3050 50  0000 C CNN
F 1 "150R" V 7600 3050 50  0000 C CNN
F 2 "Resistor_SMD:R_0805_2012Metric" H 7700 3050 50  0001 C CNN
F 3 "~" H 7700 3050 50  0001 C CNN
	1    7700 3050
	-1   0    0    -1  
$EndComp
$Comp
L Device:R_Small R20
U 1 1 5DADA6DF
P 7700 3350
F 0 "R20" V 7800 3350 50  0000 C CNN
F 1 "150R" V 7600 3350 50  0000 C CNN
F 2 "Resistor_SMD:R_0805_2012Metric" H 7700 3350 50  0001 C CNN
F 3 "~" H 7700 3350 50  0001 C CNN
	1    7700 3350
	-1   0    0    -1  
$EndComp
$Comp
L Device:R_Small R21
U 1 1 5DADAB74
P 7700 3650
F 0 "R21" V 7800 3650 50  0000 C CNN
F 1 "150R" V 7600 3650 50  0000 C CNN
F 2 "Resistor_SMD:R_0805_2012Metric" H 7700 3650 50  0001 C CNN
F 3 "~" H 7700 3650 50  0001 C CNN
	1    7700 3650
	-1   0    0    -1  
$EndComp
Wire Wire Line
	7700 3450 7700 3500
Connection ~ 7700 2600
Wire Wire Line
	7700 2600 7700 2650
Wire Wire Line
	7300 2900 7300 3500
Wire Wire Line
	7300 3500 7700 3500
Connection ~ 7700 3500
Wire Wire Line
	7700 3500 7700 3550
Wire Wire Line
	7200 3000 7200 3800
Wire Wire Line
	7200 3800 7700 3800
Wire Wire Line
	7700 3800 7700 3750
Connection ~ 7700 3800
Wire Wire Line
	5800 3400 5800 4800
Wire Wire Line
	5900 3300 5900 5000
Text Label 5650 3300 0    50   ~ 0
SWCLK
Wire Wire Line
	5600 3400 5800 3400
Wire Wire Line
	5600 3300 5900 3300
$Comp
L Device:C_Small C11
U 1 1 5DB10EA8
P 7550 3950
F 0 "C11" H 7560 4020 50  0000 L CNN
F 1 "10n" H 7560 3870 50  0000 L CNN
F 2 "Capacitor_SMD:C_0805_2012Metric" H 7550 3950 50  0001 C CNN
F 3 "~" H 7550 3950 50  0001 C CNN
	1    7550 3950
	0    1    1    0   
$EndComp
$Comp
L power:GND #PWR027
U 1 1 5DB117C5
P 7400 3950
F 0 "#PWR027" H 7400 3700 50  0001 C CNN
F 1 "GND" H 7400 3800 50  0000 C CNN
F 2 "" H 7400 3950 50  0001 C CNN
F 3 "" H 7400 3950 50  0001 C CNN
	1    7400 3950
	0    1    1    0   
$EndComp
Wire Wire Line
	7400 3950 7450 3950
Wire Wire Line
	7650 3950 7700 3950
Wire Wire Line
	7700 3800 7700 3950
Connection ~ 7700 3950
$Comp
L Device:R_Small R17
U 1 1 5DBE3D5D
P 7600 4900
F 0 "R17" V 7700 4900 50  0000 C CNN
F 1 "1K" V 7500 4900 50  0000 C CNN
F 2 "Resistor_SMD:R_0805_2012Metric" H 7600 4900 50  0001 C CNN
F 3 "~" H 7600 4900 50  0001 C CNN
	1    7600 4900
	-1   0    0    1   
$EndComp
$Comp
L power:GND #PWR029
U 1 1 5DBE47F3
P 7600 5050
F 0 "#PWR029" H 7600 4800 50  0001 C CNN
F 1 "GND" H 7600 4900 50  0000 C CNN
F 2 "" H 7600 5050 50  0001 C CNN
F 3 "" H 7600 5050 50  0001 C CNN
	1    7600 5050
	1    0    0    -1  
$EndComp
Wire Wire Line
	7600 5050 7600 5000
$Comp
L power:+3V3 #PWR028
U 1 1 5DBE8CDB
P 7600 4400
F 0 "#PWR028" H 7600 4250 50  0001 C CNN
F 1 "+3V3" H 7600 4540 50  0000 C CNN
F 2 "" H 7600 4400 50  0001 C CNN
F 3 "" H 7600 4400 50  0001 C CNN
	1    7600 4400
	1    0    0    -1  
$EndComp
$Comp
L Device:C_Small C13
U 1 1 5DBED62E
P 7900 4900
F 0 "C13" H 7910 4970 50  0000 L CNN
F 1 "10n" H 7910 4820 50  0000 L CNN
F 2 "Capacitor_SMD:C_0805_2012Metric" H 7900 4900 50  0001 C CNN
F 3 "~" H 7900 4900 50  0001 C CNN
	1    7900 4900
	-1   0    0    1   
$EndComp
$Comp
L power:GND #PWR032
U 1 1 5DBF2EE3
P 7900 5050
F 0 "#PWR032" H 7900 4800 50  0001 C CNN
F 1 "GND" H 7900 4900 50  0000 C CNN
F 2 "" H 7900 5050 50  0001 C CNN
F 3 "" H 7900 5050 50  0001 C CNN
	1    7900 5050
	1    0    0    -1  
$EndComp
Wire Wire Line
	7600 4700 7600 4800
Connection ~ 7600 4700
$Comp
L Switch:SW_Push SW2
U 1 1 5DB57124
P 4900 6150
F 0 "SW2" H 4950 6250 50  0000 L CNN
F 1 "SW_Push" H 4900 6090 50  0000 C CNN
F 2 "Button_Switch_THT:SW_PUSH_6mm" H 4900 6350 50  0001 C CNN
F 3 "~" H 4900 6350 50  0001 C CNN
	1    4900 6150
	0    1    1    0   
$EndComp
Text Label 5650 2300 0    50   ~ 0
VM100R
Text Label 5650 2400 0    50   ~ 0
IM
Text Label 8100 2500 0    50   ~ 0
VM10R
$Comp
L 00_Mix:MCP6022-I_SN U4
U 1 1 5DB9B476
P 8100 1800
F 0 "U4" H 8100 1650 50  0000 L CNN
F 1 "MCP6022-I_SN" H 8050 2050 50  0000 L CNN
F 2 "Package_SO:SOIC-8_3.9x4.9mm_P1.27mm" H 8100 1800 50  0001 C CNN
F 3 "https://www.tme.eu/Document/e53df4b1836c376b19d8bc3b9f170709/mcp6021.pdf" H 8100 1800 50  0001 C CNN
	1    8100 1800
	-1   0    0    1   
$EndComp
$Comp
L 00_Mix:MCP6022-I_SN U4
U 2 1 5DB9C503
P 9250 2500
F 0 "U4" H 9250 2700 50  0000 L CNN
F 1 "MCP6022-I_SN" H 9050 2800 50  0000 L CNN
F 2 "Package_SO:SOIC-8_3.9x4.9mm_P1.27mm" H 9250 2500 50  0001 C CNN
F 3 "https://www.tme.eu/Document/e53df4b1836c376b19d8bc3b9f170709/mcp6021.pdf" H 9250 2500 50  0001 C CNN
	2    9250 2500
	-1   0    0    1   
$EndComp
$Comp
L Device:R_Small R29
U 1 1 5DBA3FEE
P 8700 1700
F 0 "R29" V 8800 1700 50  0000 C CNN
F 1 "33K/.1%" V 8600 1700 50  0000 C CNN
F 2 "Resistor_SMD:R_0805_2012Metric" H 8700 1700 50  0001 C CNN
F 3 "~" H 8700 1700 50  0001 C CNN
	1    8700 1700
	0    -1   1    0   
$EndComp
$Comp
L Device:R_Small R23
U 1 1 5DBA5B59
P 7900 1100
F 0 "R23" V 8000 1100 50  0000 C CNN
F 1 "0R" V 7800 1100 50  0000 C CNN
F 2 "Resistor_SMD:R_0805_2012Metric" H 7900 1100 50  0001 C CNN
F 3 "~" H 7900 1100 50  0001 C CNN
	1    7900 1100
	0    -1   1    0   
$EndComp
$Comp
L Device:R_Small R26
U 1 1 5DBA5B5F
P 8250 1100
F 0 "R26" V 8350 1100 50  0000 C CNN
F 1 "330K/.1%" V 8150 1100 50  0000 C CNN
F 2 "Resistor_SMD:R_0805_2012Metric" H 8250 1100 50  0001 C CNN
F 3 "~" H 8250 1100 50  0001 C CNN
	1    8250 1100
	0    -1   1    0   
$EndComp
Wire Wire Line
	8600 1700 8500 1700
Wire Wire Line
	8500 1100 8500 1700
Wire Wire Line
	8500 1100 8350 1100
Connection ~ 8500 1700
Wire Wire Line
	8500 1700 8400 1700
Wire Wire Line
	8150 1100 8000 1100
Wire Wire Line
	7800 1100 7650 1100
Wire Wire Line
	7650 1100 7650 1800
Wire Wire Line
	7650 1800 7800 1800
$Comp
L Device:R_Small R15
U 1 1 5DBD34D2
P 7450 1800
F 0 "R15" V 7550 1800 50  0000 C CNN
F 1 "100R" V 7350 1800 50  0000 C CNN
F 2 "Resistor_SMD:R_0805_2012Metric" H 7450 1800 50  0001 C CNN
F 3 "~" H 7450 1800 50  0001 C CNN
	1    7450 1800
	0    -1   -1   0   
$EndComp
$Comp
L Device:C_Small C10
U 1 1 5DBD3A5C
P 7250 2000
F 0 "C10" H 7260 2070 50  0000 L CNN
F 1 "10n" H 7260 1920 50  0000 L CNN
F 2 "Capacitor_SMD:C_0805_2012Metric" H 7250 2000 50  0001 C CNN
F 3 "~" H 7250 2000 50  0001 C CNN
	1    7250 2000
	-1   0    0    1   
$EndComp
Wire Wire Line
	7650 1800 7550 1800
Connection ~ 7650 1800
Wire Wire Line
	7350 1800 7250 1800
Wire Wire Line
	7250 1800 7250 1900
Connection ~ 7250 1800
$Comp
L 00_Mix:MCP6022-I_SN U4
U 3 1 5DBE995C
P 8100 1800
F 0 "U4" H 8100 2000 50  0001 L CNN
F 1 "MCP6022-I_SN" H 8100 1600 50  0001 L CNN
F 2 "Package_SO:SOIC-8_3.9x4.9mm_P1.27mm" H 8100 1800 50  0001 C CNN
F 3 "https://www.tme.eu/Document/e53df4b1836c376b19d8bc3b9f170709/mcp6021.pdf" H 8100 1800 50  0001 C CNN
	3    8100 1800
	-1   0    0    -1  
$EndComp
$Comp
L Device:C_Small C14
U 1 1 5DBF27D1
P 8050 1450
F 0 "C14" H 8060 1520 50  0000 L CNN
F 1 "100n" H 8060 1370 50  0000 L CNN
F 2 "Capacitor_SMD:C_0805_2012Metric" H 8050 1450 50  0001 C CNN
F 3 "~" H 8050 1450 50  0001 C CNN
	1    8050 1450
	0    1    -1   0   
$EndComp
$Comp
L power:GND #PWR031
U 1 1 5DBF3072
P 7900 1450
F 0 "#PWR031" H 7900 1200 50  0001 C CNN
F 1 "GND" H 7900 1300 50  0000 C CNN
F 2 "" H 7900 1450 50  0001 C CNN
F 3 "" H 7900 1450 50  0001 C CNN
	1    7900 1450
	0    1    -1   0   
$EndComp
$Comp
L power:+3V3 #PWR035
U 1 1 5DBF3845
P 8250 1450
F 0 "#PWR035" H 8250 1300 50  0001 C CNN
F 1 "+3V3" H 8250 1590 50  0000 C CNN
F 2 "" H 8250 1450 50  0001 C CNN
F 3 "" H 8250 1450 50  0001 C CNN
	1    8250 1450
	0    1    -1   0   
$EndComp
Wire Wire Line
	8250 1450 8200 1450
Wire Wire Line
	8200 1500 8200 1450
Connection ~ 8200 1450
Wire Wire Line
	8200 1450 8150 1450
$Comp
L Device:R_Small R32
U 1 1 5DC4B45D
P 9050 2100
F 0 "R32" V 9150 2100 50  0000 C CNN
F 1 "330K/.1%" V 8950 2100 50  0000 C CNN
F 2 "Resistor_SMD:R_0805_2012Metric" H 9050 2100 50  0001 C CNN
F 3 "~" H 9050 2100 50  0001 C CNN
	1    9050 2100
	0    -1   1    0   
$EndComp
$Comp
L Device:R_Small R33
U 1 1 5DC4B463
P 9400 2100
F 0 "R33" V 9500 2100 50  0000 C CNN
F 1 "330K/.1%" V 9300 2100 50  0000 C CNN
F 2 "Resistor_SMD:R_0805_2012Metric" H 9400 2100 50  0001 C CNN
F 3 "~" H 9400 2100 50  0001 C CNN
	1    9400 2100
	0    -1   -1   0   
$EndComp
Wire Wire Line
	9650 2100 9500 2100
Wire Wire Line
	9300 2100 9150 2100
Wire Wire Line
	8950 2100 8800 2100
Wire Wire Line
	9750 2400 9650 2400
Wire Wire Line
	9650 2100 9650 2400
Connection ~ 9650 2400
Wire Wire Line
	9650 2400 9550 2400
Wire Wire Line
	8950 2500 8800 2500
Wire Wire Line
	8800 2500 8800 2100
$Comp
L power:GND #PWR026
U 1 1 5DC7AABA
P 7250 2150
F 0 "#PWR026" H 7250 1900 50  0001 C CNN
F 1 "GND" H 7250 2000 50  0000 C CNN
F 2 "" H 7250 2150 50  0001 C CNN
F 3 "" H 7250 2150 50  0001 C CNN
	1    7250 2150
	-1   0    0    -1  
$EndComp
Wire Wire Line
	7250 2150 7250 2100
$Comp
L Device:R_Small R28
U 1 1 5DC8CA68
P 8600 2500
F 0 "R28" V 8700 2500 50  0000 C CNN
F 1 "100R" V 8500 2500 50  0000 C CNN
F 2 "Resistor_SMD:R_0805_2012Metric" H 8600 2500 50  0001 C CNN
F 3 "~" H 8600 2500 50  0001 C CNN
	1    8600 2500
	0    -1   -1   0   
$EndComp
$Comp
L Device:C_Small C15
U 1 1 5DC8CA6E
P 8400 2700
F 0 "C15" H 8410 2770 50  0000 L CNN
F 1 "10n" H 8410 2620 50  0000 L CNN
F 2 "Capacitor_SMD:C_0805_2012Metric" H 8400 2700 50  0001 C CNN
F 3 "~" H 8400 2700 50  0001 C CNN
	1    8400 2700
	-1   0    0    1   
$EndComp
Wire Wire Line
	8500 2500 8400 2500
Wire Wire Line
	8400 2500 8400 2600
$Comp
L power:GND #PWR036
U 1 1 5DC8CA78
P 8400 2850
F 0 "#PWR036" H 8400 2600 50  0001 C CNN
F 1 "GND" H 8400 2700 50  0000 C CNN
F 2 "" H 8400 2850 50  0001 C CNN
F 3 "" H 8400 2850 50  0001 C CNN
	1    8400 2850
	-1   0    0    -1  
$EndComp
Wire Wire Line
	8400 2850 8400 2800
Wire Wire Line
	8700 2500 8800 2500
Connection ~ 8800 2500
Wire Wire Line
	7700 3950 7850 3950
Text Label 7650 4700 0    50   ~ 0
1V65
Connection ~ 9800 4700
Connection ~ 9050 4700
Wire Wire Line
	9050 4700 9800 4700
Wire Wire Line
	10050 4600 10050 4700
Wire Wire Line
	10050 4350 10050 4400
Wire Wire Line
	9800 4600 9800 4700
Wire Wire Line
	9800 4400 9800 4350
$Comp
L Device:D_Small D7
U 1 1 5DADDE9F
P 10050 4500
F 0 "D7" H 10000 4580 50  0000 L CNN
F 1 "S1G" H 9900 4420 50  0000 L CNN
F 2 "Diode_SMD:D_SMA" V 10050 4500 50  0001 C CNN
F 3 "~" V 10050 4500 50  0001 C CNN
	1    10050 4500
	0    -1   -1   0   
$EndComp
$Comp
L Device:D_Small D4
U 1 1 5DADDB1F
P 9800 4500
F 0 "D4" H 9750 4580 50  0000 L CNN
F 1 "S1G" H 9650 4420 50  0000 L CNN
F 2 "Diode_SMD:D_SMA" V 9800 4500 50  0001 C CNN
F 3 "~" V 9800 4500 50  0001 C CNN
	1    9800 4500
	0    1    1    0   
$EndComp
$Comp
L power:+BATT #PWR037
U 1 1 5DAD5288
P 10050 3650
F 0 "#PWR037" H 10050 3500 50  0001 C CNN
F 1 "+BATT" H 10050 3790 50  0000 C CNN
F 2 "" H 10050 3650 50  0001 C CNN
F 3 "" H 10050 3650 50  0001 C CNN
	1    10050 3650
	1    0    0    -1  
$EndComp
Wire Wire Line
	9600 4050 9800 4050
$Comp
L Device:R_Small R34
U 1 1 5DC6F847
P 9500 4050
F 0 "R34" V 9600 4050 50  0000 C CNN
F 1 "50R" V 9400 4050 50  0000 C CNN
F 2 "Resistor_SMD:R_0805_2012Metric" H 9500 4050 50  0001 C CNN
F 3 "~" H 9500 4050 50  0001 C CNN
	1    9500 4050
	0    1    -1   0   
$EndComp
$Comp
L power:GND #PWR030
U 1 1 5DC3088D
P 7650 5850
F 0 "#PWR030" H 7650 5600 50  0001 C CNN
F 1 "GND" H 7650 5700 50  0000 C CNN
F 2 "" H 7650 5850 50  0001 C CNN
F 3 "" H 7650 5850 50  0001 C CNN
	1    7650 5850
	1    0    0    -1  
$EndComp
Connection ~ 8400 5500
$Comp
L Device:C_Small C12
U 1 1 5DC24198
P 7650 5700
F 0 "C12" H 7660 5770 50  0000 L CNN
F 1 "10n" H 7660 5620 50  0000 L CNN
F 2 "Capacitor_SMD:C_0805_2012Metric" H 7650 5700 50  0001 C CNN
F 3 "~" H 7650 5700 50  0001 C CNN
	1    7650 5700
	-1   0    0    1   
$EndComp
Connection ~ 8800 5500
Wire Wire Line
	9050 5500 9050 5250
Wire Wire Line
	8800 5500 9050 5500
Connection ~ 8800 4700
Wire Wire Line
	9050 4700 9050 5050
Wire Wire Line
	8800 4700 9050 4700
$Comp
L Device:C_Small C18
U 1 1 5DC13E91
P 9050 5150
F 0 "C18" H 9060 5220 50  0000 L CNN
F 1 "DNP" H 9060 5070 50  0000 L CNN
F 2 "Capacitor_SMD:C_0805_2012Metric" H 9050 5150 50  0001 C CNN
F 3 "~" H 9050 5150 50  0001 C CNN
	1    9050 5150
	1    0    0    -1  
$EndComp
Connection ~ 9200 3400
Connection ~ 8300 3400
Connection ~ 8300 4700
Wire Wire Line
	8300 4700 8300 4800
Wire Wire Line
	8300 4150 8450 4150
Wire Wire Line
	8300 4700 8300 4150
Wire Wire Line
	7600 4700 7900 4700
Wire Wire Line
	8800 5500 8800 5250
Wire Wire Line
	8400 5500 8800 5500
Wire Wire Line
	8400 5400 8400 5500
Wire Wire Line
	8500 4700 8500 4800
Wire Wire Line
	8800 4700 8800 5050
Wire Wire Line
	8500 4700 8800 4700
$Comp
L Device:R_Small R30
U 1 1 5DBDA8F5
P 8800 5150
F 0 "R30" V 8900 5150 50  0000 C CNN
F 1 "150R/.1%" V 8700 5150 50  0000 C CNN
F 2 "Resistor_SMD:R_0805_2012Metric" H 8800 5150 50  0001 C CNN
F 3 "~" H 8800 5150 50  0001 C CNN
	1    8800 5150
	1    0    0    1   
$EndComp
Wire Wire Line
	10050 4800 10050 4700
Wire Wire Line
	10050 4050 10050 3950
Connection ~ 8650 3700
Wire Wire Line
	8600 3700 8650 3700
Wire Wire Line
	8900 3700 8950 3700
$Comp
L power:GND #PWR039
U 1 1 5DB96575
P 8950 3700
F 0 "#PWR039" H 8950 3450 50  0001 C CNN
F 1 "GND" H 8950 3550 50  0000 C CNN
F 2 "" H 8950 3700 50  0001 C CNN
F 3 "" H 8950 3700 50  0001 C CNN
	1    8950 3700
	0    -1   -1   0   
$EndComp
Wire Wire Line
	8650 4400 8650 4350
$Comp
L power:GND #PWR038
U 1 1 5DB929CF
P 8650 4400
F 0 "#PWR038" H 8650 4150 50  0001 C CNN
F 1 "GND" H 8650 4250 50  0000 C CNN
F 2 "" H 8650 4400 50  0001 C CNN
F 3 "" H 8650 4400 50  0001 C CNN
	1    8650 4400
	1    0    0    -1  
$EndComp
Wire Wire Line
	8650 3700 8700 3700
Wire Wire Line
	8650 3750 8650 3700
Wire Wire Line
	10050 5050 10050 5000
$Comp
L power:GND #PWR041
U 1 1 5DB750AB
P 10050 5050
F 0 "#PWR041" H 10050 4800 50  0001 C CNN
F 1 "GND" H 10050 4900 50  0000 C CNN
F 2 "" H 10050 5050 50  0001 C CNN
F 3 "" H 10050 5050 50  0001 C CNN
	1    10050 5050
	1    0    0    -1  
$EndComp
$Comp
L Device:D_Small D8
U 1 1 5DB71B76
P 10050 4900
F 0 "D8" H 10000 4980 50  0000 L CNN
F 1 "S1G" H 9900 4820 50  0000 L CNN
F 2 "Diode_SMD:D_SMA" V 10050 4900 50  0001 C CNN
F 3 "~" V 10050 4900 50  0001 C CNN
	1    10050 4900
	0    1    1    0   
$EndComp
$Comp
L Device:D_Small D5
U 1 1 5DB71715
P 10050 3850
F 0 "D5" H 10000 3930 50  0000 L CNN
F 1 "S1G" H 9900 3770 50  0000 L CNN
F 2 "Diode_SMD:D_SMA" V 10050 3850 50  0001 C CNN
F 3 "~" V 10050 3850 50  0001 C CNN
	1    10050 3850
	0    1    1    0   
$EndComp
Connection ~ 10050 4700
Wire Wire Line
	9800 4700 10050 4700
Connection ~ 10050 4050
Wire Wire Line
	9800 4050 10050 4050
Wire Wire Line
	10050 4050 10050 4150
Connection ~ 9800 4050
Wire Wire Line
	9800 4150 9800 4050
$Comp
L Device:D_Small D6
U 1 1 5DB5DBF8
P 10050 4250
F 0 "D6" H 10000 4330 50  0000 L CNN
F 1 "S1G" H 9900 4170 50  0000 L CNN
F 2 "Diode_SMD:D_SMA" V 10050 4250 50  0001 C CNN
F 3 "~" V 10050 4250 50  0001 C CNN
	1    10050 4250
	0    -1   -1   0   
$EndComp
$Comp
L Device:D_Small D3
U 1 1 5DB5CBDA
P 9800 4250
F 0 "D3" H 9750 4330 50  0000 L CNN
F 1 "S1G" H 9650 4170 50  0000 L CNN
F 2 "Diode_SMD:D_SMA" V 9800 4250 50  0001 C CNN
F 3 "~" V 9800 4250 50  0001 C CNN
	1    9800 4250
	0    1    1    0   
$EndComp
Connection ~ 9200 4050
Wire Wire Line
	9200 4050 9400 4050
Wire Wire Line
	9200 4050 9050 4050
Wire Wire Line
	9200 3400 9200 4050
Wire Wire Line
	8650 3400 9200 3400
Wire Wire Line
	8300 3950 8450 3950
Connection ~ 8300 3950
Wire Wire Line
	8300 3400 8450 3400
Wire Wire Line
	8300 3950 8300 3400
Wire Wire Line
	8050 3950 8300 3950
$Comp
L Device:R_Small R24
U 1 1 5DB4C4BF
P 7950 3950
F 0 "R24" V 8050 3950 50  0000 C CNN
F 1 "33K" V 7850 3950 50  0000 C CNN
F 2 "Resistor_SMD:R_0805_2012Metric" H 7950 3950 50  0001 C CNN
F 3 "~" H 7950 3950 50  0001 C CNN
	1    7950 3950
	0    1    -1   0   
$EndComp
$Comp
L Device:R_Small R27
U 1 1 5DB4C10C
P 8550 3400
F 0 "R27" V 8650 3400 50  0000 C CNN
F 1 "10K" V 8450 3400 50  0000 C CNN
F 2 "Resistor_SMD:R_0805_2012Metric" H 8550 3400 50  0001 C CNN
F 3 "~" H 8550 3400 50  0001 C CNN
	1    8550 3400
	0    1    -1   0   
$EndComp
$Comp
L Device:C_Small C16
U 1 1 5DAA62C9
P 8800 3700
F 0 "C16" H 8810 3770 50  0000 L CNN
F 1 "100n" H 8810 3620 50  0000 L CNN
F 2 "Capacitor_SMD:C_0805_2012Metric" H 8800 3700 50  0001 C CNN
F 3 "~" H 8800 3700 50  0001 C CNN
	1    8800 3700
	0    -1   -1   0   
$EndComp
$Comp
L 00_Mix:MCP6022-I_SN U5
U 3 1 5DA967D3
P 8750 4050
F 0 "U5" H 8750 4250 50  0001 L CNN
F 1 "MCP6022-I_SN" H 8750 3850 50  0001 L CNN
F 2 "Package_SO:SOIC-8_3.9x4.9mm_P1.27mm" H 8750 4050 50  0001 C CNN
F 3 "https://www.tme.eu/Document/e53df4b1836c376b19d8bc3b9f170709/mcp6021.pdf" H 8750 4050 50  0001 C CNN
	3    8750 4050
	1    0    0    -1  
$EndComp
$Comp
L 00_Mix:MCP6022-I_SN U5
U 2 1 5DA95E3D
P 8400 5100
F 0 "U5" H 8400 5300 50  0000 L CNN
F 1 "MCP6022-I_SN" H 8200 5400 50  0000 L CNN
F 2 "Package_SO:SOIC-8_3.9x4.9mm_P1.27mm" H 8400 5100 50  0001 C CNN
F 3 "https://www.tme.eu/Document/e53df4b1836c376b19d8bc3b9f170709/mcp6021.pdf" H 8400 5100 50  0001 C CNN
	2    8400 5100
	0    -1   1    0   
$EndComp
$Comp
L 00_Mix:MCP6022-I_SN U5
U 1 1 5DA93516
P 8750 4050
F 0 "U5" H 8750 3900 50  0000 L CNN
F 1 "MCP6022-I_SN" H 8700 4300 50  0000 L CNN
F 2 "Package_SO:SOIC-8_3.9x4.9mm_P1.27mm" H 8750 4050 50  0001 C CNN
F 3 "https://www.tme.eu/Document/e53df4b1836c376b19d8bc3b9f170709/mcp6021.pdf" H 8750 4050 50  0001 C CNN
	1    8750 4050
	1    0    0    1   
$EndComp
Wire Wire Line
	7700 3150 7700 3200
Wire Wire Line
	7400 2800 7400 3200
Wire Wire Line
	7400 3200 7700 3200
Connection ~ 7700 3200
Wire Wire Line
	7700 3200 7700 3250
Wire Wire Line
	7700 2900 7700 2950
Wire Wire Line
	7700 2850 7700 2900
Connection ~ 7700 2900
Wire Wire Line
	7500 2700 7500 2900
Wire Wire Line
	7500 2900 7700 2900
Text Label 8500 2150 1    50   ~ 0
1V65
Text Label 9650 2850 1    50   ~ 0
1V65
Wire Wire Line
	8400 1900 8500 1900
Wire Wire Line
	8500 1900 8500 2200
Wire Wire Line
	9550 2600 9650 2600
Wire Wire Line
	9650 2600 9650 2900
Wire Wire Line
	5600 2300 5950 2300
Wire Wire Line
	8000 3100 8000 3050
Wire Wire Line
	7700 2600 8000 2600
Wire Wire Line
	8000 2600 8000 2850
$Comp
L Device:C_Small C17
U 1 1 5DC0985C
P 8900 3200
F 0 "C17" H 8910 3270 50  0000 L CNN
F 1 "DNP" H 8910 3120 50  0000 L CNN
F 2 "Capacitor_SMD:C_0805_2012Metric" H 8900 3200 50  0001 C CNN
F 3 "~" H 8900 3200 50  0001 C CNN
	1    8900 3200
	0    -1   1    0   
$EndComp
Wire Wire Line
	8300 3400 8300 3200
Wire Wire Line
	8300 3200 8800 3200
Wire Wire Line
	9000 3200 9200 3200
Wire Wire Line
	9200 3200 9200 3400
Text Label 5650 2500 0    50   ~ 0
VM10R
Text Label 7000 1800 0    50   ~ 0
VM100R
Wire Wire Line
	7900 1450 7950 1450
Wire Wire Line
	5600 2400 5950 2400
Wire Wire Line
	7900 4800 7900 4700
Connection ~ 7900 4700
Wire Wire Line
	7900 4700 8300 4700
Wire Wire Line
	7900 5050 7900 5000
Text Label 7400 5500 0    50   ~ 0
IM
Connection ~ 10450 2400
Wire Wire Line
	10450 1700 10450 2400
Connection ~ 10450 4050
Wire Wire Line
	10450 4050 10450 2400
$Comp
L Connector:Conn_01x02_Male J5
U 1 1 5DB58A4A
P 10700 4450
F 0 "J5" H 10700 4550 50  0000 C CNN
F 1 "DUT" H 10700 4250 50  0000 C CNN
F 2 "Connector_PinHeader_2.54mm:PinHeader_1x02_P2.54mm_Vertical" H 10700 4450 50  0001 C CNN
F 3 "~" H 10700 4450 50  0001 C CNN
	1    10700 4450
	-1   0    0    1   
$EndComp
Wire Wire Line
	10500 4350 10450 4350
Wire Wire Line
	10450 4350 10450 4050
Wire Wire Line
	10050 4050 10450 4050
Wire Wire Line
	10450 4450 10500 4450
Wire Wire Line
	10050 4700 10450 4700
Wire Wire Line
	10450 4450 10450 4700
Wire Wire Line
	9150 1700 10450 1700
Wire Wire Line
	8950 1700 8800 1700
$Comp
L Device:R_Small R31
U 1 1 5DBA4B25
P 9050 1700
F 0 "R31" V 9150 1700 50  0000 C CNN
F 1 "33K/.1%" V 8950 1700 50  0000 C CNN
F 2 "Resistor_SMD:R_0805_2012Metric" H 9050 1700 50  0001 C CNN
F 3 "~" H 9050 1700 50  0001 C CNN
	1    9050 1700
	0    -1   -1   0   
$EndComp
$Comp
L Device:R_Small R35
U 1 1 5DC42F94
P 9850 2400
F 0 "R35" V 9950 2400 50  0000 C CNN
F 1 "0R" V 9750 2400 50  0000 C CNN
F 2 "Resistor_SMD:R_0805_2012Metric" H 9850 2400 50  0001 C CNN
F 3 "~" H 9850 2400 50  0001 C CNN
	1    9850 2400
	0    -1   1    0   
$EndComp
Wire Wire Line
	10450 2400 10300 2400
Wire Wire Line
	10100 2400 9950 2400
$Comp
L Device:R_Small R36
U 1 1 5DC42F9A
P 10200 2400
F 0 "R36" V 10300 2400 50  0000 C CNN
F 1 "33K/.1%" V 10100 2400 50  0000 C CNN
F 2 "Resistor_SMD:R_0805_2012Metric" H 10200 2400 50  0001 C CNN
F 3 "~" H 10200 2400 50  0001 C CNN
	1    10200 2400
	0    -1   -1   0   
$EndComp
Wire Wire Line
	7000 1800 7250 1800
Wire Wire Line
	7600 4700 7600 4600
$Comp
L Device:R_Small R16
U 1 1 5DBE34CA
P 7600 4500
F 0 "R16" V 7700 4500 50  0000 C CNN
F 1 "1K" V 7500 4500 50  0000 C CNN
F 2 "Resistor_SMD:R_0805_2012Metric" H 7600 4500 50  0001 C CNN
F 3 "~" H 7600 4500 50  0001 C CNN
	1    7600 4500
	-1   0    0    1   
$EndComp
$Comp
L Device:R_Small R22
U 1 1 5DC2514A
P 7850 5500
F 0 "R22" V 7950 5500 50  0000 C CNN
F 1 "100R" V 7750 5500 50  0000 C CNN
F 2 "Resistor_SMD:R_0805_2012Metric" H 7850 5500 50  0001 C CNN
F 3 "~" H 7850 5500 50  0001 C CNN
	1    7850 5500
	0    -1   1    0   
$EndComp
Wire Wire Line
	7350 5500 7650 5500
Wire Wire Line
	7950 5500 8400 5500
Wire Wire Line
	7650 5850 7650 5800
Wire Wire Line
	7650 5600 7650 5500
Connection ~ 7650 5500
Wire Wire Line
	7650 5500 7750 5500
$Comp
L power:GND #PWR034
U 1 1 5DC02CD3
P 8200 2150
F 0 "#PWR034" H 8200 1900 50  0001 C CNN
F 1 "GND" H 8200 2000 50  0000 C CNN
F 2 "" H 8200 2150 50  0001 C CNN
F 3 "" H 8200 2150 50  0001 C CNN
	1    8200 2150
	-1   0    0    -1  
$EndComp
Wire Wire Line
	8200 2150 8200 2100
Connection ~ 8400 2500
Wire Wire Line
	5600 2500 5950 2500
Wire Wire Line
	8050 2500 8400 2500
Wire Wire Line
	6250 2900 5600 2900
Wire Wire Line
	6250 2700 5600 2700
Wire Wire Line
	6900 2600 7700 2600
Wire Wire Line
	6900 2800 7400 2800
Wire Wire Line
	6900 3000 7200 3000
Wire Wire Line
	6450 2900 7300 2900
Wire Wire Line
	6450 2700 7500 2700
$Comp
L Device:R_Small R14
U 1 1 5DAB55C0
P 6800 3000
F 0 "R14" V 6850 3150 50  0000 C CNN
F 1 "300R" V 6750 3200 50  0000 C CNN
F 2 "Resistor_SMD:R_0805_2012Metric" H 6800 3000 50  0001 C CNN
F 3 "~" H 6800 3000 50  0001 C CNN
	1    6800 3000
	0    -1   1    0   
$EndComp
$Comp
L Device:R_Small R9
U 1 1 5DAB50D0
P 6350 2900
F 0 "R9" V 6400 3050 50  0000 C CNN
F 1 "300R" V 6300 3100 50  0000 C CNN
F 2 "Resistor_SMD:R_0805_2012Metric" H 6350 2900 50  0001 C CNN
F 3 "~" H 6350 2900 50  0001 C CNN
	1    6350 2900
	0    -1   1    0   
$EndComp
$Comp
L Device:R_Small R13
U 1 1 5DAB4DBB
P 6800 2800
F 0 "R13" V 6850 2950 50  0000 C CNN
F 1 "300R" V 6750 3000 50  0000 C CNN
F 2 "Resistor_SMD:R_0805_2012Metric" H 6800 2800 50  0001 C CNN
F 3 "~" H 6800 2800 50  0001 C CNN
	1    6800 2800
	0    -1   1    0   
$EndComp
$Comp
L Device:R_Small R8
U 1 1 5DAB4932
P 6350 2700
F 0 "R8" V 6400 2850 50  0000 C CNN
F 1 "300R" V 6300 2900 50  0000 C CNN
F 2 "Resistor_SMD:R_0805_2012Metric" H 6350 2700 50  0001 C CNN
F 3 "~" H 6350 2700 50  0001 C CNN
	1    6350 2700
	0    -1   1    0   
$EndComp
Wire Wire Line
	6700 3000 5600 3000
Wire Wire Line
	6700 2800 5600 2800
Wire Wire Line
	5600 2600 6700 2600
$Comp
L Device:R_Small R12
U 1 1 5DAA82CF
P 6800 2600
F 0 "R12" V 6850 2750 50  0000 C CNN
F 1 "300R" V 6750 2800 50  0000 C CNN
F 2 "Resistor_SMD:R_0805_2012Metric" H 6800 2600 50  0001 C CNN
F 3 "~" H 6800 2600 50  0001 C CNN
	1    6800 2600
	0    -1   1    0   
$EndComp
$Comp
L Device:Crystal_Small Y1
U 1 1 5E3ED6B3
P 4350 3050
F 0 "Y1" H 4350 3150 50  0000 C CNN
F 1 "8MHz" H 4350 2950 50  0000 C CNN
F 2 "Crystal:Crystal_SMD_HC49-SD" H 4350 3050 50  0001 C CNN
F 3 "~" H 4350 3050 50  0001 C CNN
	1    4350 3050
	0    -1   1    0   
$EndComp
$Comp
L Device:C_Small C3
U 1 1 5E3F006E
P 4200 2900
F 0 "C3" H 4210 2970 50  0000 L CNN
F 1 "10n" H 4210 2820 50  0000 L CNN
F 2 "Capacitor_SMD:C_0805_2012Metric" H 4200 2900 50  0001 C CNN
F 3 "~" H 4200 2900 50  0001 C CNN
	1    4200 2900
	0    -1   -1   0   
$EndComp
$Comp
L Device:C_Small C4
U 1 1 5E3F12DE
P 4200 3200
F 0 "C4" H 4210 3270 50  0000 L CNN
F 1 "10n" H 4210 3120 50  0000 L CNN
F 2 "Capacitor_SMD:C_0805_2012Metric" H 4200 3200 50  0001 C CNN
F 3 "~" H 4200 3200 50  0001 C CNN
	1    4200 3200
	0    -1   1    0   
$EndComp
Wire Wire Line
	4300 2900 4350 2900
Wire Wire Line
	4350 2900 4350 2950
Wire Wire Line
	4300 3200 4350 3200
Wire Wire Line
	4350 3200 4350 3150
$Comp
L power:GND #PWR09
U 1 1 5E407068
P 4050 3200
F 0 "#PWR09" H 4050 2950 50  0001 C CNN
F 1 "GND" H 4050 3050 50  0000 C CNN
F 2 "" H 4050 3200 50  0001 C CNN
F 3 "" H 4050 3200 50  0001 C CNN
	1    4050 3200
	0    1    1    0   
$EndComp
$Comp
L power:GND #PWR08
U 1 1 5E407753
P 4050 2900
F 0 "#PWR08" H 4050 2650 50  0001 C CNN
F 1 "GND" H 4050 2750 50  0000 C CNN
F 2 "" H 4050 2900 50  0001 C CNN
F 3 "" H 4050 2900 50  0001 C CNN
	1    4050 2900
	0    1    1    0   
$EndComp
Wire Wire Line
	4050 2900 4100 2900
Wire Wire Line
	4050 3200 4100 3200
Wire Wire Line
	4600 3100 4550 3100
Wire Wire Line
	4550 3100 4550 2900
Wire Wire Line
	4550 2900 4350 2900
Connection ~ 4350 2900
Connection ~ 4350 3200
$Comp
L Regulator_Linear:LM1117-3.3 U3
U 1 1 5E4D375F
P 5250 6750
F 0 "U3" H 5350 6450 50  0000 C CNN
F 1 "LM1117-3.3" H 5250 6900 50  0000 C CNN
F 2 "Package_TO_SOT_SMD:SOT-223-3_TabPin2" H 5250 6750 50  0001 C CNN
F 3 "http://www.ti.com/lit/ds/symlink/lm1117.pdf" H 5250 6750 50  0001 C CNN
	1    5250 6750
	1    0    0    -1  
$EndComp
Wire Wire Line
	4900 6750 4950 6750
Wire Wire Line
	4900 6450 5500 6450
$Comp
L Connector:Conn_01x04_Male J3
U 1 1 5DA54FB6
P 6700 4150
F 0 "J3" H 6700 4350 50  0000 C CNN
F 1 "Display" V 6650 4100 50  0000 C CNN
F 2 "Connector_PinHeader_2.54mm:PinHeader_1x04_P2.54mm_Vertical" H 6700 4150 50  0001 C CNN
F 3 "~" H 6700 4150 50  0001 C CNN
	1    6700 4150
	-1   0    0    1   
$EndComp
Wire Wire Line
	6250 4700 6500 4700
Text Label 6250 4700 0    50   ~ 0
NRST
Wire Wire Line
	6250 4900 6500 4900
$Comp
L power:GND #PWR023
U 1 1 5DA68F9C
P 6250 4900
F 0 "#PWR023" H 6250 4650 50  0001 C CNN
F 1 "GND" H 6250 4750 50  0000 C CNN
F 2 "" H 6250 4900 50  0001 C CNN
F 3 "" H 6250 4900 50  0001 C CNN
	1    6250 4900
	0    1    1    0   
$EndComp
Wire Wire Line
	6050 3100 6050 3500
Wire Wire Line
	6050 3100 5600 3100
Wire Wire Line
	6500 4050 6050 4050
Wire Wire Line
	6250 4150 6500 4150
$Comp
L power:+3V3 #PWR022
U 1 1 5DA58B1E
P 6250 4150
F 0 "#PWR022" H 6250 4000 50  0001 C CNN
F 1 "+3V3" H 6200 4300 50  0000 C CNN
F 2 "" H 6250 4150 50  0001 C CNN
F 3 "" H 6250 4150 50  0001 C CNN
	1    6250 4150
	0    -1   -1   0   
$EndComp
Wire Wire Line
	6450 4250 6500 4250
$Comp
L power:GND #PWR024
U 1 1 5DA58159
P 6450 4250
F 0 "#PWR024" H 6450 4000 50  0001 C CNN
F 1 "GND" H 6450 4100 50  0000 C CNN
F 2 "" H 6450 4250 50  0001 C CNN
F 3 "" H 6450 4250 50  0001 C CNN
	1    6450 4250
	0    1    1    0   
$EndComp
$Comp
L Connector:Conn_01x04_Male J4
U 1 1 5DA53C45
P 6700 4900
F 0 "J4" H 6700 5100 50  0000 C CNN
F 1 "SWD" V 6650 4850 50  0000 C CNN
F 2 "Connector_PinHeader_2.54mm:PinHeader_1x04_P2.54mm_Vertical" H 6700 4900 50  0001 C CNN
F 3 "~" H 6700 4900 50  0001 C CNN
	1    6700 4900
	-1   0    0    1   
$EndComp
Wire Wire Line
	5600 3200 6150 3200
Wire Wire Line
	6150 3950 6500 3950
$Comp
L Device:R_Small R10
U 1 1 5E5B1A6C
P 6350 3200
F 0 "R10" V 6450 3200 50  0000 C CNN
F 1 "2K2" V 6250 3200 50  0000 C CNN
F 2 "Resistor_SMD:R_0805_2012Metric" H 6350 3200 50  0001 C CNN
F 3 "~" H 6350 3200 50  0001 C CNN
	1    6350 3200
	0    1    -1   0   
$EndComp
$Comp
L Device:R_Small R11
U 1 1 5E5B215F
P 6350 3500
F 0 "R11" V 6450 3500 50  0000 C CNN
F 1 "2K2" V 6250 3500 50  0000 C CNN
F 2 "Resistor_SMD:R_0805_2012Metric" H 6350 3500 50  0001 C CNN
F 3 "~" H 6350 3500 50  0001 C CNN
	1    6350 3500
	0    1    -1   0   
$EndComp
Wire Wire Line
	6250 3500 6050 3500
Connection ~ 6050 3500
Wire Wire Line
	6050 3500 6050 4050
Wire Wire Line
	6250 3200 6150 3200
Connection ~ 6150 3200
Wire Wire Line
	6150 3200 6150 3950
Wire Wire Line
	6450 3500 6500 3500
Wire Wire Line
	6500 3500 6500 3350
Wire Wire Line
	6450 3200 6500 3200
$Comp
L power:+3V3 #PWR025
U 1 1 5E6054CA
P 6550 3350
F 0 "#PWR025" H 6550 3200 50  0001 C CNN
F 1 "+3V3" H 6550 3490 50  0000 C CNN
F 2 "" H 6550 3350 50  0001 C CNN
F 3 "" H 6550 3350 50  0001 C CNN
	1    6550 3350
	0    1    1    0   
$EndComp
Text Label 6350 4050 0    50   ~ 0
SCL
Text Label 6350 3950 0    50   ~ 0
SDA
Text Label 6250 5000 0    50   ~ 0
SWCLK
Text Label 6250 4800 0    50   ~ 0
SWD
Wire Wire Line
	5800 4800 6500 4800
Wire Wire Line
	5900 5000 6500 5000
Wire Wire Line
	6550 3350 6500 3350
Connection ~ 6500 3350
Wire Wire Line
	6500 3350 6500 3200
$Comp
L Device:C_Small C7
U 1 1 5E73A5DE
P 4900 6950
F 0 "C7" H 4910 7020 50  0000 L CNN
F 1 "10u" H 4910 6870 50  0000 L CNN
F 2 "Capacitor_SMD:C_0805_2012Metric" H 4900 6950 50  0001 C CNN
F 3 "~" H 4900 6950 50  0001 C CNN
	1    4900 6950
	-1   0    0    1   
$EndComp
$Comp
L Device:C_Small C9
U 1 1 5E73B161
P 5650 6950
F 0 "C9" H 5660 7020 50  0000 L CNN
F 1 "10u" H 5660 6870 50  0000 L CNN
F 2 "Capacitor_SMD:C_0805_2012Metric" H 5650 6950 50  0001 C CNN
F 3 "~" H 5650 6950 50  0001 C CNN
	1    5650 6950
	1    0    0    1   
$EndComp
Wire Wire Line
	4900 7050 4900 7100
Wire Wire Line
	4900 7100 5250 7100
Wire Wire Line
	5650 7100 5650 7050
Wire Wire Line
	5250 7050 5250 7100
Connection ~ 5250 7100
Wire Wire Line
	5250 7100 5650 7100
$Comp
L power:GND #PWR018
U 1 1 5E75A7FA
P 5250 7150
F 0 "#PWR018" H 5250 6900 50  0001 C CNN
F 1 "GND" H 5250 7000 50  0000 C CNN
F 2 "" H 5250 7150 50  0001 C CNN
F 3 "" H 5250 7150 50  0001 C CNN
	1    5250 7150
	1    0    0    -1  
$EndComp
Wire Wire Line
	5250 7150 5250 7100
Wire Wire Line
	4900 6850 4900 6750
Connection ~ 4900 6750
Wire Wire Line
	5550 6750 5650 6750
Wire Wire Line
	5650 6750 5650 6850
Wire Wire Line
	5650 6750 5750 6750
Connection ~ 5650 6750
Wire Wire Line
	4550 5850 4900 5850
Wire Wire Line
	4900 5950 4900 5850
Connection ~ 4900 5850
Wire Wire Line
	4900 5850 5250 5850
Wire Wire Line
	4900 6450 4900 6350
Connection ~ 4900 6450
Wire Wire Line
	4350 3200 4600 3200
$Comp
L Device:R_Small R3
U 1 1 5E959806
P 3900 4250
F 0 "R3" H 3930 4270 50  0000 L CNN
F 1 "10K" H 3930 4210 50  0000 L CNN
F 2 "Resistor_SMD:R_0805_2012Metric" H 3900 4250 50  0001 C CNN
F 3 "~" H 3900 4250 50  0001 C CNN
	1    3900 4250
	-1   0    0    1   
$EndComp
$Comp
L Device:R_Small R4
U 1 1 5E95A6A3
P 3900 4650
F 0 "R4" H 3930 4670 50  0000 L CNN
F 1 "1K" H 3930 4610 50  0000 L CNN
F 2 "Resistor_SMD:R_0805_2012Metric" H 3900 4650 50  0001 C CNN
F 3 "~" H 3900 4650 50  0001 C CNN
	1    3900 4650
	-1   0    0    1   
$EndComp
$Comp
L Device:D_TVS D1
U 1 1 5E96E699
P 2800 6100
F 0 "D1" H 2800 6200 50  0000 C CNN
F 1 "7V" H 2800 6000 50  0000 C CNN
F 2 "Diode_SMD:D_SMA" H 2800 6100 50  0001 C CNN
F 3 "~" H 2800 6100 50  0001 C CNN
	1    2800 6100
	0    1    1    0   
$EndComp
$Comp
L power:GND #PWR02
U 1 1 5E96F140
P 2800 6300
F 0 "#PWR02" H 2800 6050 50  0001 C CNN
F 1 "GND" H 2800 6150 50  0000 C CNN
F 2 "" H 2800 6300 50  0001 C CNN
F 3 "" H 2800 6300 50  0001 C CNN
	1    2800 6300
	1    0    0    -1  
$EndComp
Wire Wire Line
	2800 6300 2800 6250
Wire Wire Line
	2800 5950 2800 5850
Connection ~ 2800 5850
Wire Wire Line
	2800 5850 3100 5850
$Comp
L power:+BATT #PWR04
U 1 1 5E9D2963
P 3900 4100
F 0 "#PWR04" H 3900 3950 50  0001 C CNN
F 1 "+BATT" V 3800 4150 50  0000 C CNN
F 2 "" H 3900 4100 50  0001 C CNN
F 3 "" H 3900 4100 50  0001 C CNN
	1    3900 4100
	-1   0    0    -1  
$EndComp
Wire Wire Line
	3900 4150 3900 4100
Text Notes 4800 5750 0    50   ~ 0
Circuit NOT protected\nagainst battery reverse polarity
$Comp
L power:GND #PWR05
U 1 1 5E9E49E1
P 3900 4850
F 0 "#PWR05" H 3900 4600 50  0001 C CNN
F 1 "GND" H 3900 4700 50  0000 C CNN
F 2 "" H 3900 4850 50  0001 C CNN
F 3 "" H 3900 4850 50  0001 C CNN
	1    3900 4850
	1    0    0    -1  
$EndComp
Wire Wire Line
	3900 4850 3900 4800
Wire Wire Line
	3900 4550 3900 4450
$Comp
L Device:Buzzer BZ1
U 1 1 5EA072FD
P 3550 4550
F 0 "BZ1" H 3500 4350 50  0000 L CNN
F 1 "Buzzer" H 3450 4250 50  0000 L CNN
F 2 "Buzzer_Beeper:Buzzer_12x9.5RM7.6" V 3525 4650 50  0001 C CNN
F 3 "~" V 3525 4650 50  0001 C CNN
	1    3550 4550
	-1   0    0    -1  
$EndComp
Wire Wire Line
	3650 4450 3900 4450
Connection ~ 3900 4450
Wire Wire Line
	3900 4450 3900 4350
Wire Wire Line
	3900 4800 3700 4800
Wire Wire Line
	3700 4800 3700 4650
Wire Wire Line
	3700 4650 3650 4650
Connection ~ 3900 4800
Wire Wire Line
	3900 4800 3900 4750
$Comp
L Switch:SW_Push SW1
U 1 1 5EA920A2
P 4250 4200
F 0 "SW1" H 4300 4300 50  0000 L CNN
F 1 "SW_Push" H 4250 4140 50  0000 C CNN
F 2 "Button_Switch_THT:SW_PUSH_6mm" H 4250 4400 50  0001 C CNN
F 3 "~" H 4250 4400 50  0001 C CNN
	1    4250 4200
	0    1    1    0   
$EndComp
$Comp
L power:+3V3 #PWR010
U 1 1 5EA94607
P 4250 3700
F 0 "#PWR010" H 4250 3550 50  0001 C CNN
F 1 "+3V3" H 4250 3840 50  0000 C CNN
F 2 "" H 4250 3700 50  0001 C CNN
F 3 "" H 4250 3700 50  0001 C CNN
	1    4250 3700
	1    0    0    -1  
$EndComp
Wire Wire Line
	3900 4450 4250 4450
Wire Wire Line
	4250 4450 4250 4400
Wire Wire Line
	4250 4450 4550 4450
Wire Wire Line
	4550 4450 4550 3400
Wire Wire Line
	4550 3400 4600 3400
Connection ~ 4250 4450
Text Notes 3450 3650 0    50   ~ 0
Battery voltage sensing\nBuzzer output\nButton input
Wire Notes Line
	3300 850  10850 850 
Wire Notes Line
	10850 850  10850 6100
Wire Notes Line
	6950 6100 6950 5150
Wire Notes Line
	6950 5150 3300 5150
Wire Notes Line
	10850 6100 6950 6100
Wire Notes Line
	3300 5150 3300 850 
Text Notes 1450 7050 0    50   ~ 0
Power supply input\nwith reverse polarity protection
$Comp
L power:+3V3 #PWR021
U 1 1 5E799AE3
P 5750 6750
F 0 "#PWR021" H 5750 6600 50  0001 C CNN
F 1 "+3V3" V 5650 6800 50  0000 C CNN
F 2 "" H 5750 6750 50  0001 C CNN
F 3 "" H 5750 6750 50  0001 C CNN
	1    5750 6750
	0    1    1    0   
$EndComp
$Comp
L power:+BATT #PWR019
U 1 1 5DAC48FB
P 5500 6450
F 0 "#PWR019" H 5500 6300 50  0001 C CNN
F 1 "+BATT" V 5400 6500 50  0000 C CNN
F 2 "" H 5500 6450 50  0001 C CNN
F 3 "" H 5500 6450 50  0001 C CNN
	1    5500 6450
	0    1    1    0   
$EndComp
$Comp
L Connector:Conn_01x02_Male J2
U 1 1 5DA781AE
P 5450 5950
F 0 "J2" H 5350 5900 50  0000 C CNN
F 1 "Battery terminal" H 5250 6050 50  0000 C CNN
F 2 "Connector_PinHeader_2.54mm:PinHeader_1x02_P2.54mm_Vertical" H 5450 5950 50  0001 C CNN
F 3 "~" H 5450 5950 50  0001 C CNN
	1    5450 5950
	-1   0    0    1   
$EndComp
Text Notes 3300 7050 0    50   ~ 0
Charge management controller\nfor Li-Po battery, 3.7 V, 500 mAh
Wire Notes Line
	1350 5550 6100 5550
Wire Notes Line
	6100 5550 6100 7400
Wire Notes Line
	1350 5550 1350 7400
Wire Notes Line
	1350 7400 6100 7400
Text Notes 750  2550 0    50   ~ 0
PARAMETERS:\nSupply voltage: 4.5 V to 5.5 VDC\nSupply current: TODOTODO mA\nMeasurement frequency: 10 mHz to 10 kHz\nMeasurement excitation voltage: +-0.25 V or +-0.5V\nMeasurement impedance range: 100 mR to 1000 R\n\nBattery voltage sensing\nBuzzer indicator\nCharging indicator\nControl button\nDisplay: TODO\n\nMeasured parameters:\n     Impedance Z [R]\n     Resistance R [R]\n     Reactance X [R]\n     Capacitance C [F]\n     Inductance L [H]\n     Quality Q [TODO]\n     Tan delta [TODO]
$Comp
L power:PWR_FLAG #FLG0101
U 1 1 5ECBB68A
P 4800 6750
F 0 "#FLG0101" H 4800 6825 50  0001 C CNN
F 1 "PWR_FLAG" H 4800 6900 50  0000 C CNN
F 2 "" H 4800 6750 50  0001 C CNN
F 3 "~" H 4800 6750 50  0001 C CNN
	1    4800 6750
	0    -1   -1   0   
$EndComp
Wire Wire Line
	1950 5850 2200 5850
Wire Wire Line
	4900 6450 4900 6750
Wire Wire Line
	4800 6750 4900 6750
$Comp
L power:PWR_FLAG #FLG0102
U 1 1 5ECF8E2A
P 2800 5800
F 0 "#FLG0102" H 2800 5875 50  0001 C CNN
F 1 "PWR_FLAG" H 2800 5950 50  0000 C CNN
F 2 "" H 2800 5800 50  0001 C CNN
F 3 "~" H 2800 5800 50  0001 C CNN
	1    2800 5800
	1    0    0    -1  
$EndComp
Wire Wire Line
	2800 5800 2800 5850
$Comp
L Device:R_Small R37
U 1 1 5ED6804E
P 4250 3850
F 0 "R37" H 4280 3870 50  0000 L CNN
F 1 "300R" H 4280 3810 50  0000 L CNN
F 2 "Resistor_SMD:R_0805_2012Metric" H 4250 3850 50  0001 C CNN
F 3 "~" H 4250 3850 50  0001 C CNN
	1    4250 3850
	-1   0    0    1   
$EndComp
Wire Wire Line
	4250 4000 4250 3950
Wire Wire Line
	4250 3750 4250 3700
Wire Wire Line
	10050 3650 10050 3750
$Comp
L power:+BATT #PWR0101
U 1 1 5EE61ADE
P 8600 3700
F 0 "#PWR0101" H 8600 3550 50  0001 C CNN
F 1 "+BATT" H 8600 3840 50  0000 C CNN
F 2 "" H 8600 3700 50  0001 C CNN
F 3 "" H 8600 3700 50  0001 C CNN
	1    8600 3700
	0    -1   -1   0   
$EndComp
Text Notes 950  3750 0    50   ~ 0
ERROR - replace U3 with !LDO! AP2114H-3.3TRG1\nSWD and SCLK accidentally swapped\nR4 better be 5K - better range, button press handled by ADC sensing\nR27 shall be 5K to output +-250mV for generator
$EndSCHEMATC
